Making a data frame from a list from GitHub API
…
Download this:

https://github.com/jennybc/purrr-tutorial/raw/gh-pages/github_repos.rds

Make user-specific data frames, one row per repo. Then unnest() the enclosing data frame to get one row per repo.

rdf %>% 
  mutate(
    #n_repos = map_int(gh_repos, length),
    repo_info = gh_repos %>%
      map(. %>% map_df(`[`, c("name", "fork", "open_issues")))
  ) %>% 
  select(-gh_repos) %>% 
  tidyr::unnest()
#> # A tibble: 408 x 4
#>           name        name  fork open_issues
#>          <chr>       <chr> <lgl>       <int>
#> 1  gaborcsardi       after FALSE           0
#> 2  gaborcsardi      argufy FALSE           6
#> 3  gaborcsardi         ask FALSE           4
#> 4  gaborcsardi baseimports FALSE           0
#> 5  gaborcsardi      citest  TRUE           0
#> 6  gaborcsardi  clisymbols FALSE           0
#> 7  gaborcsardi      cmaker  TRUE           0
#> 8  gaborcsardi  conditions  TRUE           0
#> 9  gaborcsardi      crayon FALSE           5
#> 10 gaborcsardi     diffobj  TRUE           0
#> # ... with 398 more rows
…
