Food Markets in New York
…
Now I can get a data frame easily.

(food_df <- food_mkts %>% 
    map_df(safe_extract, to_process))
#> # A tibble: 28,355 × 22
#>      sid                                   id position created_at
#>    <int>                                <chr>    <int>      <int>
#> 1      1 D943D633-8DB5-4740-B5F4-06AAB6FC52E2        1 1412261567
#> 2      2 7A069C98-90B2-4B11-A4A7-3C4761D14DDD        2 1412261567
#> 3      3 68DBE61E-ACF4-4803-BD90-87380FDAA4F9        3 1412261567
#> 4      4 9DA5A827-A0AD-4782-8CE2-5D6867B53293        4 1412261567
#> 5      5 5D624E4B-E4A8-4F3D-BF88-190663DF8FCF        5 1412261567
#> 6      6 86BC29A4-55DA-43C5-BDED-6EF2C92C3C8B        6 1412261567
#> 7      7 51EE0EB4-6D71-4C2E-AD44-E225A1A45987        7 1412261567
#> 8      8 22B148DF-F188-4245-8E69-1137F9A6064E        8 1412261567
#> 9      9 62526ABF-801E-46DE-97CD-05C2DDE6BB20        9 1412261567
#> 10    10 13153CBA-3E65-4D4D-9A4C-ACB24BCD33DF       10 1412261567
#> # ... with 28,345 more rows, and 18 more variables: created_meta <chr>,
#> #   updated_at <int>, updated_meta <chr>, meta <chr>, County <chr>,
#> #   `License Number` <chr>, `Operation Type` <chr>, `Estab Type` <chr>,
#> #   `Entity Name` <chr>, `DBA Name` <chr>, `Street Number` <chr>, `Street
#> #   Name` <chr>, `Address Line 2` <chr>, `Address Line 3` <chr>,
#> #   City <chr>, State <chr>, `Zip Code` <chr>, `Square Footage` <chr>
…
Good news: there’s a built-in way to handle explicit NULLs.

Bad news: we need to specify type for each of the 22 variables.

¯\_(ツ)_/¯ news: we get to use more exotic features of purrr.

Here’s a naïve approach for two variables:

food_mkts %>% {
  tibble(
    dba_name = map_chr(., "DBA Name"),
    city = map_chr(., "City")
  )
}
#> # A tibble: 28,355 × 2
#>                   dba_name               city
#>                      <chr>              <chr>
#> 1  PLAZA 23 TRUCK STOP     ALBANY            
#> 2  PRICE CHOPPER #245      WATERVLIET        
#> 3  PEACOCK                 ALBANY            
#> 4  FINYOUR FISHMONGER      GUILDERLAND       
#> 5  R&A GROCERY STORE       ALBANY            
#> 6  ANTHONYS CHOC DIP FRUIT ALBANY            
#> 7  DOLLAR TREE #4168       GLENMONT          
#> 8  GREAT WALL EXPRESS ASIA SLINGERLANDS      
#> 9  INANC I OZBAY           ALBANY            
#> 10 SAGAMIA                 SLINGERLANDS      
#> # ... with 28,345 more rows

Doing this for 22 variables is a drag, though it’s certainly possible, and even reasonable for the ingest of an important dataset.

However, because I can, I store the type of each variable and do extraction + type conversion programmatically. This lets us explore more of the functional programming side of purrr.

I exploit the variable types learned from the automatic type conversion in the “rows first” approach. Here’s a data frame with one row per variable, providing the expected class and the type-appropriate map_*() and NA. It will soon become clear why I use the specific variable names, .f and .null.

(vdf <- food_df %>% 
   map_chr(class) %>%
   enframe(name = ".f", value = "type") %>% 
   mutate(vname = .f %>% tolower() %>% gsub("\\s+", "_", .),
          mapper = c(integer = "map_int", character = "map_chr")[type],
          .null = list(integer = NA_integer_,
                       character = NA_character_)[type]))
#> # A tibble: 22 × 5
#>                .f      type          vname  mapper     .null
#>             <chr>     <chr>          <chr>   <chr>    <list>
#> 1             sid   integer            sid map_int <int [1]>
#> 2              id character             id map_chr <chr [1]>
#> 3        position   integer       position map_int <int [1]>
#> 4      created_at   integer     created_at map_int <int [1]>
#> 5    created_meta character   created_meta map_chr <chr [1]>
#> 6      updated_at   integer     updated_at map_int <int [1]>
#> 7    updated_meta character   updated_meta map_chr <chr [1]>
#> 8            meta character           meta map_chr <chr [1]>
#> 9          County character         county map_chr <chr [1]>
#> 10 License Number character license_number map_chr <chr [1]>
#> # ... with 12 more rows
…
do.call() is a base R function that constructs and executes a function call from a function (name or actual function) and a list of arguments. It’s exactly what we need. But we also want to do this for each of the 22 variables.

How to scale up? We use the invoke() family of functions in purrr. invoke() itself is a pipe-friendly wrapper around do.call(). invoke_map() and friends allow you to map over functions and arguments in parallel, analagous to map2(). The big difference with invoke_map() is that the two primary inputs are a vector of functions and a vector of argument values. That’s what we use here.

(mkts_df <- invoke_map_df(.f = set_names(vdf$mapper, vdf$vname),
                          .x = transpose(vdf[c(".f", ".null")]),
                          food_mkts))
#> # A tibble: 28,355 × 22
#>      sid                                   id position created_at
#>    <int>                                <chr>    <int>      <int>
#> 1      1 D943D633-8DB5-4740-B5F4-06AAB6FC52E2        1 1412261567
#> 2      2 7A069C98-90B2-4B11-A4A7-3C4761D14DDD        2 1412261567
#> 3      3 68DBE61E-ACF4-4803-BD90-87380FDAA4F9        3 1412261567
#> 4      4 9DA5A827-A0AD-4782-8CE2-5D6867B53293        4 1412261567
#> 5      5 5D624E4B-E4A8-4F3D-BF88-190663DF8FCF        5 1412261567
#> 6      6 86BC29A4-55DA-43C5-BDED-6EF2C92C3C8B        6 1412261567
#> 7      7 51EE0EB4-6D71-4C2E-AD44-E225A1A45987        7 1412261567
#> 8      8 22B148DF-F188-4245-8E69-1137F9A6064E        8 1412261567
#> 9      9 62526ABF-801E-46DE-97CD-05C2DDE6BB20        9 1412261567
#> 10    10 13153CBA-3E65-4D4D-9A4C-ACB24BCD33DF       10 1412261567
#> # ... with 28,345 more rows, and 18 more variables: created_meta <chr>,
#> #   updated_at <int>, updated_meta <chr>, meta <chr>, county <chr>,
#> #   license_number <chr>, operation_type <chr>, estab_type <chr>,
#> #   entity_name <chr>, dba_name <chr>, street_number <chr>,
#> #   street_name <chr>, address_line_2 <chr>, address_line_3 <chr>,
#> #   city <chr>, state <chr>, zip_code <chr>, square_footage <chr>
…
