Introduction to map(): extract elements
…
Exercises

Use your list inspection skills to determine the position of the elements named “name”, “gender”, “culture”, “born”, and “died”. Map [ or magrittr::extract() over users, requesting these elements by position instead of name.

Data frame output

We just learned how to extract multiple elements per user by mapping [. But, since [ is non-simplifying, each user’s elements are returned in a list. And, as it must, map() itself returns list. We’ve traded one recursive list for another recursive list, albeit a slightly less complicated one.

How can we “stack up” these results row-wise, i.e. one row per user and variables for “name”, “gender”, etc.? A data frame would be the perfect data structure for this information.

This is what map_dfr() is for.

map_dfr(got_chars, extract, c("name", "culture", "gender", "id", "born", "alive"))
#> # A tibble: 30 x 6
#>    name            culture  gender    id born                         alive
#>    <chr>           <chr>    <chr>  <int> <chr>                        <lgl>
#>  1 Theon Greyjoy   Ironborn Male    1022 In 278 AC or 279 AC, at Pyke TRUE 
#>  2 Tyrion Lannist… ""       Male    1052 In 273 AC, at Casterly Rock  TRUE 
#>  3 Victarion Grey… Ironborn Male    1074 In 268 AC or before, at Pyke TRUE 
#>  4 Will            ""       Male    1109 ""                           FALSE
#>  5 Areo Hotah      Norvoshi Male    1166 In 257 AC or before, at Nor… TRUE 
#>  6 Chett           ""       Male    1267 At Hag's Mire                FALSE
#>  7 Cressen         ""       Male    1295 In 219 AC or 220 AC          FALSE
#>  8 Arianne Martell Dornish  Female   130 In 276 AC, at Sunspear       TRUE 
#>  9 Daenerys Targa… Valyrian Female  1303 In 284 AC, at Dragonstone    TRUE 
#> 10 Davos Seaworth  Westeros Male    1319 In 260 AC or before, at Kin… TRUE 
#> # … with 20 more rows
…
Notice how the variables have been automatically type converted. It’s a beautiful thing. Until it’s not. When programming, it is safer, but more cumbersome, to explicitly specify type and build your data frame the usual way.

library(tibble)
got_chars %>% {
  tibble(
       name = map_chr(., "name"),
    culture = map_chr(., "culture"),
     gender = map_chr(., "gender"),       
         id = map_int(., "id"),
       born = map_chr(., "born"),
      alive = map_lgl(., "alive")
  )
}
#> # A tibble: 30 x 6
#>    name            culture  gender    id born                         alive
#>    <chr>           <chr>    <chr>  <int> <chr>                        <lgl>
#>  1 Theon Greyjoy   Ironborn Male    1022 In 278 AC or 279 AC, at Pyke TRUE 
#>  2 Tyrion Lannist… ""       Male    1052 In 273 AC, at Casterly Rock  TRUE 
#>  3 Victarion Grey… Ironborn Male    1074 In 268 AC or before, at Pyke TRUE 
#>  4 Will            ""       Male    1109 ""                           FALSE
#>  5 Areo Hotah      Norvoshi Male    1166 In 257 AC or before, at Nor… TRUE 
#>  6 Chett           ""       Male    1267 At Hag's Mire                FALSE
#>  7 Cressen         ""       Male    1295 In 219 AC or 220 AC          FALSE
#>  8 Arianne Martell Dornish  Female   130 In 276 AC, at Sunspear       TRUE 
#>  9 Daenerys Targa… Valyrian Female  1303 In 284 AC, at Dragonstone    TRUE 
#> 10 Davos Seaworth  Westeros Male    1319 In 260 AC or before, at Kin… TRUE 
#> # … with 20 more rows
…
