List columns
…
Get character IDs from repurrrsive. cheating a little, humor me

Put IDs and character names in a tibble.

pov <- set_names(map_int(got_chars, "id"),
                 map_chr(got_chars, "name"))
tail(pov, 5)
#>      Melisandre    Merrett Frey Quentyn Martell   Samwell Tarly 
#>             743             751             844             954 
#>     Sansa Stark 
#>             957
ice <- pov %>%
  enframe(value = "id")
ice
#> # A tibble: 30 x 2
#>                  name    id
#>                 <chr> <int>
#>  1      Theon Greyjoy  1022
#>  2   Tyrion Lannister  1052
#>  3  Victarion Greyjoy  1074
#>  4               Will  1109
#>  5         Areo Hotah  1166
#>  6              Chett  1267
#>  7            Cressen  1295
#>  8    Arianne Martell   130
#>  9 Daenerys Targaryen  1303
#> 10     Davos Seaworth  1319
#> # ... with 20 more rows
…
  ice <- readRDS(here("talks", "ice.rds"))
} else {
  ice <- ice %>%
    mutate(
      response = map(id,
                     ~ GET(ice_and_fire_url,
                           path = c("api", "characters", .x))),
      stuff = map(response, ~ content(.x, as = "parsed",
                                      simplifyVector = TRUE))
    ) %>%
    select(-id, -response)
  saveRDS(ice, here("talks", "ice.rds"))
}
ice
#> # A tibble: 29 x 2
#>                  name       stuff
#>                 <chr>      <list>
#>  1      Theon Greyjoy <list [16]>
#>  2   Tyrion Lannister <list [16]>
#>  3  Victarion Greyjoy <list [16]>
#>  4               Will <list [16]>
#>  5         Areo Hotah <list [16]>
#>  6              Chett <list [16]>
#>  7            Cressen <list [16]>
#>  8    Arianne Martell <list [16]>
#>  9 Daenerys Targaryen <list [16]>
#> 10     Davos Seaworth <list [16]>
#> # ... with 19 more rows

Let’s switch to a nicer version of ice, based on the list in repurrrsive, because it already has books and houses replaced with names instead of URLs.

ice2 <- tibble(
  name = map_chr(got_chars, "name"),
  stuff = got_chars
)
ice2
#> # A tibble: 30 x 2
#>                  name       stuff
#>                 <chr>      <list>
#>  1      Theon Greyjoy <list [18]>
#>  2   Tyrion Lannister <list [18]>
#>  3  Victarion Greyjoy <list [18]>
#>  4               Will <list [18]>
#>  5         Areo Hotah <list [18]>
#>  6              Chett <list [18]>
#>  7            Cressen <list [18]>
#>  8    Arianne Martell <list [18]>
#>  9 Daenerys Targaryen <list [18]>
#> 10     Davos Seaworth <list [18]>
#> # ... with 20 more rows
…
Use regular data manipulation toolkit

Form a sentence of the form “NAME was born AT THIS TIME, IN THIS PLACE” by digging info out of the stuff list-column and placing into a string template. No list-columns left!

template <- "${name} was born ${born}."
birth_announcements <- ice2 %>%
  mutate(birth = map_chr(stuff, str_interp, string = template)) %>%
  select(-stuff)
birth_announcements
#> # A tibble: 30 x 2
#>                  name
#>                 <chr>
#>  1      Theon Greyjoy
#>  2   Tyrion Lannister
#>  3  Victarion Greyjoy
#>  4               Will
#>  5         Areo Hotah
#>  6              Chett
#>  7            Cressen
#>  8    Arianne Martell
#>  9 Daenerys Targaryen
#> 10     Davos Seaworth
#> # ... with 20 more rows, and 1 more variables: birth <chr>
…
library(tidyverse)
library(repurrrsive)
library(stringr)

Lists as variables in a data frame

One row per GoT character. List columns for aliases and allegiances.

x <- tibble(
  name = got_chars %>% map_chr("name"),
  aliases = got_chars %>% map("aliases"),
  allegiances = got_chars %>% map("allegiances")
)
x
#> # A tibble: 30 x 3
#>                  name    aliases allegiances
#>                 <chr>     <list>      <list>
#>  1      Theon Greyjoy  <chr [4]>   <chr [1]>
#>  2   Tyrion Lannister <chr [11]>   <chr [1]>
#>  3  Victarion Greyjoy  <chr [1]>   <chr [1]>
#>  4               Will  <chr [1]>      <NULL>
#>  5         Areo Hotah  <chr [1]>   <chr [1]>
#>  6              Chett  <chr [1]>      <NULL>
#>  7            Cressen  <chr [1]>      <NULL>
#>  8    Arianne Martell  <chr [1]>   <chr [1]>
#>  9 Daenerys Targaryen <chr [11]>   <chr [1]>
#> 10     Davos Seaworth  <chr [5]>   <chr [2]>
#> # ... with 20 more rows
#View(x)

What if we only care about characters with a “Lannister” alliance? Practice operating on a list-column.

x %>%
  mutate(lannister = map(allegiances, str_detect, pattern = "Lannister"),
         lannister = map_lgl(lannister, any))
#> # A tibble: 30 x 4
#>                  name    aliases allegiances lannister
#>                 <chr>     <list>      <list>     <lgl>
#>  1      Theon Greyjoy  <chr [4]>   <chr [1]>     FALSE
#>  2   Tyrion Lannister <chr [11]>   <chr [1]>      TRUE
#>  3  Victarion Greyjoy  <chr [1]>   <chr [1]>     FALSE
#>  4               Will  <chr [1]>      <NULL>     FALSE
#>  5         Areo Hotah  <chr [1]>   <chr [1]>     FALSE
#>  6              Chett  <chr [1]>      <NULL>     FALSE
#>  7            Cressen  <chr [1]>      <NULL>     FALSE
#>  8    Arianne Martell  <chr [1]>   <chr [1]>     FALSE
#>  9 Daenerys Targaryen <chr [11]>   <chr [1]>     FALSE
#> 10     Davos Seaworth  <chr [5]>   <chr [2]>     FALSE
#> # ... with 20 more rows
…
What if you actually want those fits? To access estimates, p-values, etc. In that case, you need to fit them yourself. How to do that?

Put the variables needed for country-specific models into nested dataframe. In a list-column!

Use the usual “map inside mutate”, possibly with the broom package, to pull interesting information out of the 142 fitted linear models.

Nested data frame

Nest the data frames, i.e. get one meta-row per country:

gap_nested <- gapminder %>%
  group_by(country) %>%
  nest()
gap_nested
#> # A tibble: 142 x 2
#>        country              data
#>         <fctr>            <list>
#>  1 Afghanistan <tibble [12 x 5]>
#>  2     Albania <tibble [12 x 5]>
#>  3     Algeria <tibble [12 x 5]>
#>  4      Angola <tibble [12 x 5]>
#>  5   Argentina <tibble [12 x 5]>
#>  6   Australia <tibble [12 x 5]>
#>  7     Austria <tibble [12 x 5]>
#>  8     Bahrain <tibble [12 x 5]>
#>  9  Bangladesh <tibble [12 x 5]>
#> 10     Belgium <tibble [12 x 5]>
#> # ... with 132 more rows
…
Let’s get all the r-squared values!

gap_fits %>%
  mutate(rsq = map_dbl(fit, ~ summary(.x)[["r.squared"]])) %>%
  arrange(rsq)
#> # A tibble: 142 x 4
#>             country              data      fit        rsq
#>              <fctr>            <list>   <list>      <dbl>
#>  1           Rwanda <tibble [12 x 5]> <S3: lm> 0.01715964
#>  2         Botswana <tibble [12 x 5]> <S3: lm> 0.03402340
#>  3         Zimbabwe <tibble [12 x 5]> <S3: lm> 0.05623196
#>  4           Zambia <tibble [12 x 5]> <S3: lm> 0.05983644
#>  5        Swaziland <tibble [12 x 5]> <S3: lm> 0.06821087
#>  6          Lesotho <tibble [12 x 5]> <S3: lm> 0.08485635
#>  7    Cote d'Ivoire <tibble [12 x 5]> <S3: lm> 0.28337240
#>  8     South Africa <tibble [12 x 5]> <S3: lm> 0.31246865
#>  9           Uganda <tibble [12 x 5]> <S3: lm> 0.34215382
#> 10 Congo, Dem. Rep. <tibble [12 x 5]> <S3: lm> 0.34820278
#> # ... with 132 more rows

Let’s use a function from broom to get the usual coefficient table from summary.lm() but in a friendlier form for downstream work.

library(broom)
gap_fits %>%
  mutate(coef = map(fit, tidy)) %>%
  unnest(coef)
#> # A tibble: 284 x 6
#>        country        term      estimate    std.error  statistic
#>         <fctr>       <chr>         <dbl>        <dbl>      <dbl>
#>  1 Afghanistan (Intercept)  -507.5342716 40.484161954 -12.536613
#>  2 Afghanistan        year     0.2753287  0.020450934  13.462890
#>  3     Albania (Intercept)  -594.0725110 65.655359062  -9.048348
#>  4     Albania        year     0.3346832  0.033166387  10.091036
#>  5     Algeria (Intercept) -1067.8590396 43.802200843 -24.379118
#>  6     Algeria        year     0.5692797  0.022127070  25.727749
#>  7      Angola (Intercept)  -376.5047531 46.583370599  -8.082385
#>  8      Angola        year     0.2093399  0.023532003   8.895964
#>  9   Argentina (Intercept)  -389.6063445  9.677729641 -40.258031
#> 10   Argentina        year     0.2317084  0.004888791  47.395847
#> # ... with 274 more rows, and 1 more variables: p.value <dbl>
…
