Nested data frames
…
One row per GoT character. List columns for aliases and allegiances.

x <- tibble(
  name = got_chars %>% map_chr("name"),
  aliases = got_chars %>% map("aliases"),
  allegiances = got_chars %>% map("allegiances")
)
#x %>% View()

What if we only care about characters with a “Lannister” alliance? Practice operating on a list-column.

x %>%
  mutate(lannister = map(allegiances, str_detect, pattern = "Lannister"),
         lannister = map_lgl(lannister, any))
#> # A tibble: 29 × 4
#>                  name    aliases allegiances lannister
#>                 <chr>     <list>      <list>     <lgl>
#> 1       Theon Greyjoy  <chr [4]>   <chr [1]>     FALSE
#> 2    Tyrion Lannister <chr [11]>   <chr [1]>      TRUE
#> 3   Victarion Greyjoy  <chr [1]>   <chr [1]>     FALSE
#> 4                Will <list [0]>  <list [0]>     FALSE
#> 5          Areo Hotah <list [0]>   <chr [1]>     FALSE
#> 6               Chett <list [0]>  <list [0]>     FALSE
#> 7             Cressen <list [0]>  <list [0]>     FALSE
#> 8     Arianne Martell <list [0]>   <chr [1]>     FALSE
#> 9  Daenerys Targaryen <chr [11]>   <chr [1]>     FALSE
#> 10     Davos Seaworth  <chr [5]>   <chr [2]>     FALSE
#> # ... with 19 more rows
…
